dump.vcd
$date
	Fri Nov  1 08:56:31 2024
$end

$version
	Synopsys VCS version U-2023.03-SP2_Full64
$end

$timescale
	1ps
$end

$comment Csum: 1 22cdb64c6746b81e $end


$scope module $unit $end
$upscope $end


$scope module top $end
$var reg 1 ! clk $end
$var reg 1 " inv_clk $end
$var reg 1 # reset $end

$scope begin unnamed$$_vcs_4 $end
$upscope $end


$scope begin unnamed$$_vcs_0 $end
$upscope $end


$scope begin unnamed$$_vcs_1 $end
$upscope $end


$scope begin unnamed$$_vcs_2 $end
$upscope $end


$scope begin unnamed$$_vcs_3 $end
$upscope $end


$scope module sap_intf1 $end
$var wire 1 $ clk $end
$var wire 1 % inv_clk $end
$var reg 1 & reset $end
$var reg 8 ' o [7:0] $end
$var reg 8 ( w_bus [7:0] $end
$var reg 14 ) cw_bus [13:0] $end
$upscope $end


$scope module dut $end
$var wire 1 $ clk $end
$var wire 1 % inv_clk $end
$var wire 1 * reset $end
$var wire 8 + o [7:0] $end
$var wire 8 , w_bus [7:0] $end
$var wire 14 - cw_bus [13:0] $end
$var wire 8 . AtoALU [7:0] $end
$var wire 8 / BtoALU [7:0] $end
$var wire 4 0 MARtoRAM [3:0] $end
$var wire 4 1 IRtoCONTROLLER [3:0] $end

$scope module a_register_DUT $end
$var wire 1 $ clk $end
$var wire 1 2 enable $end
$var wire 1 3 load $end
$var wire 1 * reset $end
$var wire 8 . alu_connection [7:0] $end
$var wire 8 , w_bus [7:0] $end
$var reg 8 . accumulator [7:0] $end
$upscope $end


$scope module b_register_DUT $end
$var wire 1 $ clk $end
$var wire 1 4 load $end
$var wire 1 * reset $end
$var wire 8 / alu_connection [7:0] $end
$var wire 8 , w_bus [7:0] $end
$var reg 8 / register [7:0] $end
$upscope $end


$scope module program_counter_DUT $end
$var wire 1 $ clk $end
$var wire 1 5 cp $end
$var wire 1 6 enable $end
$var wire 1 * reset $end
$var wire 4 7 w_bus [3:0] $end
$var reg 4 8 counter [3:0] $end
$upscope $end


$scope module alu_DUT $end
$var wire 1 9 enable $end
$var wire 3 : su [2:0] $end
$var wire 8 . a [7:0] $end
$var wire 8 / b [7:0] $end
$var wire 8 , w_bus [7:0] $end
$var reg 8 ; result [7:0] $end
$upscope $end


$scope module mar_DUT $end
$var wire 1 $ clk $end
$var wire 1 < load $end
$var wire 4 7 w_bus [3:0] $end
$var wire 4 0 RAM_address [3:0] $end
$var reg 4 0 register [3:0] $end
$upscope $end


$scope module memory_DUT $end
$var wire 1 = enable $end
$var wire 4 0 address [3:0] $end
$var wire 8 , w_bus [7:0] $end
$upscope $end


$scope module instruction_register_DUT $end
$var wire 1 $ clk $end
$var wire 1 > load $end
$var wire 1 ? enable $end
$var wire 1 * reset $end
$var wire 8 , w_bus [7:0] $end
$var wire 4 7 address [3:0] $end
$var wire 4 1 opcode [3:0] $end
$var reg 8 @ ir [7:0] $end
$upscope $end


$scope module output_register_DUT $end
$var wire 1 $ clk $end
$var wire 1 A load $end
$var wire 1 * reset $end
$var wire 8 , w_bus [7:0] $end
$var wire 8 + out [7:0] $end
$var reg 8 B register [7:0] $end
$upscope $end


$scope module controller_DUT $end
$var wire 1 % clk $end
$var wire 4 1 opcode [3:0] $end
$var wire 14 - cw_bus [13:0] $end
$var reg 3 C step [2:0] $end
$upscope $end

$upscope $end

$upscope $end


$scope module uvm_pkg $end
$var time 64 D setting_offset $end
$var reg 32 E uvm_global_random_seed [31:0] $end
$var reg 32 F UVM_UNBOUNDED_CONNECTIONS [31:0] $end
$var reg 1 G uvm_start_uvm_declarations $end
$var reg 32 H setting_verbosity [31:0] $end
$var reg 1 I is_verdi_set_verbosity_called $end
$upscope $end

$enddefinitions $end

#0
$dumpvars
0I
1G
bxxxxxxxxxxxxxxxxxxxxxxxxxxxxxxxxxxxxxxxxxxxxxxxxxxxxxxxxxxxxxxxx D
b11111111111111111111111111111111 F
b00000000000000000000000000000000 H
b01000010000001111100110001000111 E
0!
0"
b01011110000011 )
bzzzz0000 (
b00000000 '
b00000000 .
b0000 8
b00000000 @
bxxxx 0
b00000000 B
b00000000 /
b00000000 ;
b000 C
b000 :
bxxxx 1
0#
bzzzz0000 ,
b00000000 +
b01011110000011 -
1*
0$
0%
1&
b0000 7
02
13
14
16
05
09
0<
1=
1?
1>
1A
$end
b0000 1
#10000
0&
0*
1!
1"
1$
1%
b0000 0
b001 C
b10100110000011 -
0>
0=
1<
06
15
b10100110000011 )
b0110 7
b00000110 ,
b00000110 (
#12000
b00000000000000 )
#20000
0"
0!
1"
0$
#30000
1!
0"
1$
0%
b0001 8
b00000110 @
#40000
0!
1"
0$
1%
b010 C
b00011010000011 -
0?
1>
1=
0<
05
b00011010000011 )
bzzzz0110 ,
bzzzz0110 (
#50000
1!
0"
1$
0%
b0110 0
#60000
0!
1"
0$
1%
b011 C
b00101100000011 -
03
1?
0=
1<
b00101100000011 )
b0111 7
b00100111 ,
b00100111 (
#70000
1!
0"
1$
0%
b00100111 .
b00100111 ;
#80000
0!
1"
0$
1%
b100 C
b00111110000011 -
13
1=
b00111110000011 )
bzzzz0111 ,
bzzzz0111 (
bzzzz 7
bzzzzzzzz ,
bzzzzzzzz (
#90000
1!
0"
1$
0%
#100000
0!
1"
0$
1%
b000 C
b01011110000011 -
0<
16
b01011110000011 )
b0001 7
bzzzz0001 ,
bzzzz0001 (
#110000
1!
0"
1$
0%
b0001 0
#120000
0!
1"
0$
1%
b001 C
b10100110000011 -
0>
0=
1<
06
15
b10100110000011 )
b0111 7
b00010111 ,
b00010111 (
#130000
1!
0"
1$
0%
b0010 8
b00010111 @
b0001 1
#140000
0!
1"
0$
1%
b010 C
b00011010000011 -
0?
1>
1=
0<
05
b00011010000011 )
bzzzz0111 ,
bzzzz0111 (
#150000
1!
0"
1$
0%
b0111 0
#160000
0!
1"
0$
1%
b011 C
b00101110000001 -
04
1?
0=
1<
b00101110000001 )
b00100111 ,
b00100111 (
#170000
1!
0"
1$
0%
b00100111 /
b01001110 ;
#180000
0!
1"
0$
1%
b100 C
b00111100000111 -
14
19
03
1=
b00111100000111 )
b01000111 ,
b01000111 (
b1110 7
b01001110 ,
b01001110 (
#190000
1!
0"
1$
0%
b01001110 .
b01110101 ;
b01111110 ,
b01111110 (
b0101 7
b01110101 ,
b01110101 (
#200000
0!
1"
0$
1%
b000 C
b01011110000011 -
09
13
0<
16
b01011110000011 )
b0010 7
bzzzz0010 ,
bzzzz0010 (
#210000
1!
0"
1$
0%
b0010 0
#220000
0!
1"
0$
1%
b001 C
b10100110000011 -
0>
0=
1<
06
15
b10100110000011 )
b0111 7
b00100111 ,
b00100111 (
#230000
1!
0"
1$
0%
b0011 8
b00100111 @
b0010 1
#232000
b00000000000001 )
#240000
0!
1"
0$
1%
b010 C
b00011010001011 -
0?
1>
1=
0<
05
b001 :
b00011010001011 )
bzzzz0111 ,
bzzzz0111 (
b00100111 ;
#250000
1!
0"
1$
0%
b0111 0
#260000
0!
1"
0$
1%
b011 C
b00101110000001 -
04
1?
0=
1<
b000 :
b00101110000001 )
b00100111 ,
b00100111 (
b01110101 ;
#270000
1!
0"
1$
0%
#280000
0!
1"
0$
1%
b100 C
b00111100000111 -
14
19
03
1=
b00111100000111 )
b01110111 ,
b01110111 (
b0101 7
b01110101 ,
b01110101 (
#290000
1!
0"
1$
0%
b01110101 .
b10011100 ;
b10010101 ,
b10010101 (
b1100 7
b10011100 ,
b10011100 (
#300000
0!
1"
0$
1%
b000 C
b01011110000011 -
09
13
0<
16
b01011110000011 )
b0011 7
bzzzz0011 ,
bzzzz0011 (
#310000
1!
0"
1$
0%
b0011 0
#320000
0!
1"
0$
1%
b001 C
b10100110000011 -
0>
0=
1<
06
15
b10100110000011 )
b0111 7
b00100111 ,
b00100111 (
#330000
1!
0"
1$
0%
b0100 8
#340000
0!
1"
0$
1%
b010 C
b00011010001011 -
0?
1>
1=
0<
05
b001 :
b00011010001011 )
bzzzz0111 ,
bzzzz0111 (
b01001110 ;
#350000
1!
0"
1$
0%
b0111 0
#360000
0!
1"
0$
1%
b011 C
b00101110000001 -
04
1?
0=
1<
b000 :
b00101110000001 )
b00100111 ,
b00100111 (
b10011100 ;
#370000
1!
0"
1$
0%
#380000
0!
1"
0$
1%
b100 C
b00111100000111 -
14
19
03
1=
b00111100000111 )
b10010111 ,
b10010111 (
b1100 7
b10011100 ,
b10011100 (
#390000
1!
0"
1$
0%
b10011100 .
b11000011 ;
b11001100 ,
b11001100 (
b0011 7
b11000011 ,
b11000011 (
#400000
0!
1"
0$
1%
b000 C
b01011110000011 -
09
13
0<
16
b01011110000011 )
b0100 7
bzzzz0100 ,
bzzzz0100 (
#410000
1!
0"
1$
0%
b0100 0
#420000
0!
1"
0$
1%
b001 C
b10100110000011 -
0>
0=
1<
06
15
b10100110000011 )
b0111 7
b00100111 ,
b00100111 (
#430000
1!
0"
1$
0%
b0101 8
#440000
0!
1"
0$
1%
b010 C
b00011010001011 -
0?
1>
1=
0<
05
b001 :
b00011010001011 )
bzzzz0111 ,
bzzzz0111 (
b01110101 ;
#450000
1!
0"
1$
0%
b0111 0
#452000
b00000000001111 )
#460000
0!
1"
0$
1%
b011 C
b00101110000001 -
04
1?
0=
1<
b000 :
b00101110000001 )
b00100111 ,
b00100111 (
b11000011 ;
#470000
1!
0"
1$
0%
#480000
0!
1"
0$
1%
b100 C
b00111100000111 -
14
19
03
1=
b00111100000111 )
b11000111 ,
b11000111 (
b0011 7
b11000011 ,
b11000011 (
#490000
1!
0"
1$
0%
b11000011 .
b11101010 ;
b11100011 ,
b11100011 (
b1010 7
b11101010 ,
b11101010 (
#500000
0!
1"
0$
1%
b000 C
b01011110000011 -
09
13
0<
16
b01011110000011 )
b0101 7
bzzzz0101 ,
bzzzz0101 (
#510000
1!
0"
1$
0%
b0101 0
#520000
0!
1"
0$
1%
b001 C
b10100110000011 -
0>
0=
1<
06
15
b10100110000011 )
b0111 7
b00100111 ,
b00100111 (
#530000
1!
0"
1$
0%
b0110 8
#540000
0!
1"
0$
1%
b010 C
b00011010001011 -
0?
1>
1=
0<
05
b001 :
b00011010001011 )
bzzzz0111 ,
bzzzz0111 (
b10011100 ;
#550000
1!
0"
1$
0%
b0111 0
#560000
0!
1"
0$
1%
b011 C
b00101110000001 -
04
1?
0=
1<
b000 :
b00101110000001 )
b00100111 ,
b00100111 (
b11101010 ;
#570000
1!
0"
1$
0%
#580000
0!
1"
0$
1%
b100 C
b00111100000111 -
14
19
03
1=
b00111100000111 )
b11100111 ,
b11100111 (
b1010 7
b11101010 ,
b11101010 (
#590000
1!
0"
1$
0%
b11101010 .
b00010001 ;
b00011010 ,
b00011010 (
b0001 7
b00010001 ,
b00010001 (
#600000
0!
1"
0$
1%
b000 C
b01011110000011 -
09
13
0<
16
b01011110000011 )
b0110 7
bzzzz0110 ,
bzzzz0110 (
#610000
1!
0"
1$
0%
b0110 0
#620000
0!
1"
0$
1%
b001 C
b10100110000011 -
0>
0=
1<
06
15
b10100110000011 )
b0111 7
b00100111 ,
b00100111 (
#630000
1!
0"
1$
0%
b0111 8
#640000
0!
1"
0$
1%
b010 C
b00011010001011 -
0?
1>
1=
0<
05
b001 :
b00011010001011 )
bzzzz0111 ,
bzzzz0111 (
b11000011 ;
#650000
1!
0"
1$
0%
b0111 0
#660000
0!
1"
0$
1%
b011 C
b00101110000001 -
04
1?
0=
1<
b000 :
b00101110000001 )
b00100111 ,
b00100111 (
b00010001 ;
#670000
1!
0"
1$
0%
#672000
b00000000001110 )
#680000
0!
1"
0$
1%
b100 C
b00111100000111 -
14
19
03
1=
b00111100000111 )
b00010111 ,
b00010111 (
b0001 7
b00010001 ,
b00010001 (
#690000
1!
0"
1$
0%
b00010001 .
b00111000 ;
b00110001 ,
b00110001 (
b1000 7
b00111000 ,
b00111000 (
#700000
0!
1"
0$
1%
b000 C
b01011110000011 -
09
13
0<
16
b01011110000011 )
b0111 7
bzzzz0111 ,
bzzzz0111 (
#710000
1!
0"
1$
0%
#720000
0!
1"
0$
1%
b001 C
b10100110000011 -
0>
0=
1<
06
15
b10100110000011 )
b00100111 ,
b00100111 (
#730000
1!
0"
1$
0%
b1000 8
#740000
0!
1"
0$
1%
b010 C
b00011010001011 -
0?
1>
1=
0<
05
b001 :
b00011010001011 )
bzzzz0111 ,
bzzzz0111 (
b11101010 ;
#750000
1!
0"
1$
0%
#760000
0!
1"
0$
1%
b011 C
b00101110000001 -
04
1?
0=
1<
b000 :
b00101110000001 )
b00100111 ,
b00100111 (
b00111000 ;
#770000
1!
0"
1$
0%
#780000
0!
1"
0$
1%
b100 C
b00111100000111 -
14
19
03
1=
b00111100000111 )
b00110111 ,
b00110111 (
b1000 7
b00111000 ,
b00111000 (
#790000
1!
0"
1$
0%
b00111000 .
b01011111 ;
b01011000 ,
b01011000 (
b1111 7
b01011111 ,
b01011111 (
#800000
0!
1"
0$
1%
b000 C
b01011110000011 -
09
13
0<
16
b01011110000011 )
b1000 7
bzzzz1000 ,
bzzzz1000 (
#810000
1!
0"
1$
0%
b1000 0
#820000
0!
1"
0$
1%
b001 C
b10100110000011 -
0>
0=
1<
06
15
b10100110000011 )
b0000 7
b11100000 ,
b11100000 (
#830000
1!
0"
1$
0%
b1001 8
b11100000 @
b1110 1
#840000
0!
1"
0$
1%
b010 C
b00111111000010 -
0A
12
1>
1=
05
b00111111000010 )
b00110000 ,
b00110000 (
b1000 7
b00111000 ,
b00111000 (
#850000
1!
0"
1$
0%
b00111000 B
b00111000 +
b00111000 '
#860000
0!
1"
0$
1%
b011 C
b00111110000011 -
1A
02
b00111110000011 )
bzzzz1000 ,
bzzzz1000 (
bzzzz 7
bzzzzzzzz ,
bzzzzzzzz (
#870000
1!
0"
1$
0%
#880000
0!
1"
0$
1%
b100 C
#890000
1!
0"
1$
0%
#892000
b00000000000000 )
#900000
0!
1"
0$
1%
b000 C
b01011110000011 -
0<
16
b01011110000011 )
b1001 7
bzzzz1001 ,
bzzzz1001 (
#910000
1!
0"
1$
0%
b1001 0
#920000
0!
1"
0$
1%
b001 C
b10100110000011 -
0>
0=
1<
06
15
b10100110000011 )
bxxxx 7
bxxxxxxxx ,
bxxxxxxxx (
#930000
1!
0"
1$
0%
b1010 8
bxxxxxxxx @
bxxxx 1
bxxxxxxxxxxxxxx -
xA
x4
x9
x2
x3
x?
x>
x=
x<
x6
x5
bxxx :
bxxxxxxxxxxxxxx )
#940000
0!
1"
0$
1%
b010 C
#950000
1!
0"
1$
0%
#960000
0!
1"
0$
1%
b011 C
#970000
1!
0"
1$
0%
#980000
0!
1"
0$
1%
b100 C
#990000
1!
0"
1$
0%
#1000000
0!
1"
0$
1%
b000 C
#1010000
1!
0"
1$
0%
#1020000
0!
1"
0$
1%
b001 C
#1030000
1!
0"
1$
0%
#1040000
0!
1"
0$
1%
b010 C
#1050000
1!
0"
1$
0%
#1060000
0!
1"
0$
1%
b011 C
#1070000
1!
0"
1$
0%
#1080000
0!
1"
0$
1%
b100 C
#1090000
1!
0"
1$
0%
#1100000
0!
1"
0$
1%
b000 C
#1110000
1!
0"
1$
0%
#1112000
b00000000000010 )
#1120000
0!
1"
0$
1%
b001 C
#1130000
1!
0"
1$
0%
#1140000
0!
1"
0$
1%
b010 C
#1150000
1!
0"
1$
0%
#1160000
0!
1"
0$
1%
b011 C
#1170000
1!
0"
1$
0%
#1180000
0!
1"
0$
1%
b100 C
#1190000
1!
0"
1$
0%
#1200000
0!
1"
0$
1%
b000 C
#1210000
1!
0"
1$
0%
#1220000
0!
1"
0$
1%
b001 C
#1230000
1!
0"
1$
0%
#1240000
0!
1"
0$
1%
b010 C
#1250000
1!
0"
1$
0%
#1260000
0!
1"
0$
1%
b011 C
#1270000
1!
0"
1$
0%
#1280000
0!
1"
0$
1%
b100 C
#1290000
1!
0"
1$
0%
#1300000
0!
1"
0$
1%
b000 C
#1310000
1!
0"
1$
0%
#1320000
0!
1"
0$
1%
b001 C
#1330000
1!
0"
1$
0%
#1332000
b00011110001111 )
#1340000
0!
1"
0$
1%
b010 C
#1350000
1!
0"
1$
0%
#1360000
0!
1"
0$
1%
b011 C
#1370000
1!
0"
1$
0%
#1380000
0!
1"
0$
1%
b100 C
#1390000
1!
0"
1$
0%
#1400000
0!
1"
0$
1%
b000 C
#1410000
1!
0"
1$
0%
#1420000
0!
1"
0$
1%
b001 C
#1430000
1!
0"
1$
0%
#1440000
0!
1"
0$
1%
b010 C
#1450000
1!
0"
1$
0%
#1460000
0!
1"
0$
1%
b011 C
#1470000
1!
0"
1$
0%
#1480000
0!
1"
0$
1%
b100 C
#1490000
1!
0"
1$
0%
#1500000
0!
1"
0$
1%
b000 C
#1510000
1!
0"
1$
0%
#1520000
0!
1"
0$
1%
b001 C
#1530000
1!
0"
1$
0%
#1540000
0!
1"
0$
1%
b010 C
#1550000
1!
0"
1$
0%
#1552000
b00000000001110 )
#1560000
0!
1"
0$
1%
b011 C
#1570000
1!
0"
1$
0%
#1580000
0!
1"
0$
1%
b100 C
#1590000
1!
0"
1$
0%
#1600000
0!
1"
0$
1%
b000 C
#1610000
1!
0"
1$
0%
#1620000
0!
1"
0$
1%
b001 C
#1630000
1!
0"
1$
0%
#1640000
0!
1"
0$
1%
b010 C
#1650000
1!
0"
1$
0%
#1660000
0!
1"
0$
1%
b011 C
#1670000
1!
0"
1$
0%
#1680000
0!
1"
0$
1%
b100 C
#1690000
1!
0"
1$
0%
#1700000
0!
1"
0$
1%
b000 C
#1710000
1!
0"
1$
0%
#1720000
0!
1"
0$
1%
b001 C
#1730000
1!
0"
1$
0%
#1740000
0!
1"
0$
1%
b010 C
#1750000
1!
0"
1$
0%
#1760000
0!
1"
0$
1%
b011 C
#1770000
1!
0"
1$
0%
#1772000
b00011110101011 )
#1780000
0!
1"
0$
1%
b100 C
#1790000
1!
0"
1$
0%
#1800000
0!
1"
0$
1%
b000 C
#1810000
1!
0"
1$
0%
#1820000
0!
1"
0$
1%
b001 C
#1830000
1!
0"
1$
0%
#1840000
0!
1"
0$
1%
b010 C
#1850000
1!
0"
1$
0%
#1860000
0!
1"
0$
1%
b011 C
#1870000
1!
0"
1$
0%
#1880000
0!
1"
0$
1%
b100 C
#1890000
1!
0"
1$
0%
#1900000
0!
1"
0$
1%
b000 C
#1910000
1!
0"
1$
0%
#1920000
0!
1"
0$
1%
b001 C
#1930000
1!
0"
1$
0%
#1940000
0!
1"
0$
1%
b010 C
#1950000
1!
0"
1$
0%
#1960000
0!
1"
0$
1%
b011 C
#1970000
1!
0"
1$
0%
#1980000
0!
1"
0$
1%
b100 C
#1990000
1!
0"
1$
0%
#1992000
b00000000000011 )
#2000000
0!
1"
0$
1%
b000 C
#2010000
1!
0"
1$
0%
#2020000
0!
1"
0$
1%
b001 C
#2030000
1!
0"
1$
0%
#2040000
0!
1"
0$
1%
b010 C
#2050000
1!
0"
1$
0%
#2060000
0!
1"
0$
1%
b011 C
#2070000
1!
0"
1$
0%
#2080000
0!
1"
0$
1%
b100 C
#2090000
1!
0"
1$
0%
#2100000
0!
1"
0$
1%
b000 C
#2110000
1!
0"
1$
0%
#2120000
0!
1"
0$
1%
b001 C
#2130000
1!
0"
1$
0%
#2140000
0!
1"
0$
1%
b010 C
#2150000
1!
0"
1$
0%
#2160000
0!
1"
0$
1%
b011 C
#2170000
1!
0"
1$
0%
#2180000
0!
1"
0$
1%
b100 C
#2190000
1!
0"
1$
0%
#2200000
0!
1"
0$
1%
b000 C
#2210000
1!
0"
1$
0%
#2212000
b00000000001111 )
#2220000
0!
1"
0$
1%
b001 C
#2230000
1!
0"
1$
0%
#2240000
0!
1"
0$
1%
b010 C
#2250000
1!
0"
1$
0%
#2260000
0!
1"
0$
1%
b011 C
#2270000
1!
0"
1$
0%
#2280000
0!
1"
0$
1%
b100 C
#2290000
1!
0"
1$
0%
#2300000
0!
1"
0$
1%
b000 C
#2310000
1!
0"
1$
0%
#2320000
0!
1"
0$
1%
b001 C
#2330000
1!
0"
1$
0%
#2340000
0!
1"
0$
1%
b010 C
#2350000
1!
0"
1$
0%
#2360000
0!
1"
0$
1%
b011 C
#2370000
1!
0"
1$
0%
#2380000
0!
1"
0$
1%
b100 C
#2390000
1!
0"
1$
0%
#2400000
0!
1"
0$
1%
b000 C
#2410000
1!
0"
1$
0%
#2420000
0!
1"
0$
1%
b001 C
#2430000
1!
0"
1$
0%
#2432000
b00000000001110 )
#2440000
0!
1"
0$
1%
b010 C
#2450000
1!
0"
1$
0%
#2460000
0!
1"
0$
1%
b011 C
#2470000
1!
0"
1$
0%
#2480000
0!
1"
0$
1%
b100 C
#2490000
1!
0"
1$
0%
#2500000
0!
1"
0$
1%
b000 C
#2510000
1!
0"
1$
0%
#2520000
0!
1"
0$
1%
b001 C
#2530000
1!
0"
1$
0%
#2540000
0!
1"
0$
1%
b010 C
#2550000
1!
0"
1$
0%
#2560000
0!
1"
0$
1%
b011 C
#2570000
1!
0"
1$
0%
#2580000
0!
1"
0$
1%
b100 C
#2590000
1!
0"
1$
0%
#2600000
0!
1"
0$
1%
b000 C
#2610000
1!
0"
1$
0%
#2620000
0!
1"
0$
1%
b001 C
#2630000
1!
0"
1$
0%
#2640000
0!
1"
0$
1%
b010 C
#2650000
1!
0"
1$
0%
#2652000
b00011100100111 )
#2660000
0!
1"
0$
1%
b011 C
#2670000
1!
0"
1$
0%
#2680000
0!
1"
0$
1%
b100 C
#2690000
1!
0"
1$
0%
#2700000
0!
1"
0$
1%
b000 C
#2710000
1!
0"
1$
0%
#2720000
0!
1"
0$
1%
b001 C
#2730000
1!
0"
1$
0%
#2740000
0!
1"
0$
1%
b010 C
#2750000
1!
0"
1$
0%
#2760000
0!
1"
0$
1%
b011 C
#2770000
1!
0"
1$
0%
#2780000
0!
1"
0$
1%
b100 C
#2790000
1!
0"
1$
0%
#2800000
0!
1"
0$
1%
b000 C
#2810000
1!
0"
1$
0%
#2820000
0!
1"
0$
1%
b001 C
#2830000
1!
0"
1$
0%
#2840000
0!
1"
0$
1%
b010 C
#2850000
1!
0"
1$
0%
#2860000
0!
1"
0$
1%
b011 C
#2870000
1!
0"
1$
0%
#2872000
b00011100100100 )
#2880000
0!
1"
0$
1%
b100 C
#2890000
1!
0"
1$
0%
#2900000
0!
1"
0$
1%
b000 C
#2910000
1!
0"
1$
0%
#2920000
0!
1"
0$
1%
b001 C
#2930000
1!
0"
1$
0%
#2940000
0!
1"
0$
1%
b010 C
#2950000
1!
0"
1$
0%
#2960000
0!
1"
0$
1%
b011 C
#2970000
1!
0"
1$
0%
#2980000
0!
1"
0$
1%
b100 C
#2990000
1!
0"
1$
0%
#3000000
0!
1"
0$
1%
b000 C
#3010000
1!
0"
1$
0%
#3020000
0!
1"
0$
1%
b001 C
#3030000
1!
0"
1$
0%
#3040000
0!
1"
0$
1%
b010 C
#3050000
1!
0"
1$
0%
#3060000
0!
1"
0$
1%
b011 C
